ALU_stu/ALU_stu/.Xil/Vivado-13124-pymin66135/hw_ila_data_1/zip_work/waveform.vcd
$date
        2026-May-21 21:31:30
$end
$version
        Vivado v2020.2 (64-bit)
$end
$timescale
        1ps
$end
$scope module dut $end
$var reg 1 " test_OBUF $end
$var reg 1 # r_rst $end
$var reg 1 $ r_vaild $end
$var reg 7 % r_cnt [6:0] $end
$var reg 4 , r_alu_flags_rom [3:0] $end
$var reg 4 0 w_alu_flags [3:0] $end
$var reg 1 4 _TRIGGER $end
$var reg 1 5 _WINDOW $end
$var reg 1 6 _GAP $end
$upscope $end
$enddefinitions $end
#0
$dumpvars
1"
0#
1$
b1 %
b10 ,
b10 0
04
15
06
$end
#1
b10 %
b1000 ,
b1000 0
#2
b11 %
b0 ,
b0 0
#3
b100 %
b1010 ,
b1010 0
#4
b101 %
b0 ,
b0 0
#5
b110 %
b1000 ,
b1000 0
#6
b111 %
b0 ,
b0 0
#7
b1000 %
b1000 ,
b1000 0
#8
b1001 %
b10 ,
b10 0
#9
b1010 %
b1010 ,
b1010 0
#10
b1011 %
b11 ,
b11 0
#11
b1100 %
b10 ,
b10 0
#12
b1101 %
b0 ,
b0 0
#13
b1110 %
b1010 ,
b1010 0
#14
b1111 %
b0 ,
b0 0
#15
b10000 %
b1000 ,
b1000 0
#16
b10001 %
#17
b10010 %
#18
b10011 %
b0 ,
b0 0
#19
b10100 %
b10 ,
b10 0
#20
b10101 %
b1001 ,
b1001 0
#21
b10110 %
b1000 ,
b1000 0
#22
b10111 %
#23
b11000 %
#24
b11001 %
#25
b11010 %
b1001 ,
b1001 0
#26
b11011 %
b11 ,
b11 0
#27
b11100 %
b0 ,
b0 0
#28
b11101 %
b10 ,
b10 0
#29
b11110 %
b1000 ,
b1000 0
#30
b11111 %
b11 ,
b11 0
#31
b100000 %
b1010 ,
b1010 0
#32
b100001 %
b10 ,
b10 0
#33
b100010 %
b1000 ,
b1000 0
#34
b100011 %
#35
b100100 %
b11 ,
b11 0
#36
b100101 %
b1000 ,
b1000 0
#37
b100110 %
b1001 ,
b1001 0
#38
b100111 %
b1000 ,
b1000 0
#39
b101000 %
b0 ,
b0 0
#40
b101001 %
b10 ,
b10 0
#41
b101010 %
b1000 ,
b1000 0
#42
b101011 %
b0 ,
b0 0
#43
b101100 %
b10 ,
b10 0
#44
b101101 %
b1000 ,
b1000 0
#45
b101110 %
#46
b101111 %
#47
b110000 %
#48
b110001 %
#49
b110010 %
b0 ,
b0 0
#50
b110011 %
#51
b110100 %
b1000 ,
b1000 0
#52
b110101 %
#53
b110110 %
#54
b110111 %
#55
b111000 %
b0 ,
b0 0
#56
b111001 %
b1001 ,
b1001 0
#57
b111010 %
b1010 ,
b1010 0
#58
b111011 %
b0 ,
b0 0
#59
b111100 %
b11 ,
b11 0
#60
b111101 %
b1000 ,
b1000 0
#61
b111110 %
b10 ,
b10 0
#62
b111111 %
b1010 ,
b1010 0
#63
b1000000 %
b0 ,
b0 0
#64
b1000001 %
b1000 ,
b1000 0
#65
b1000010 %
#66
b1000011 %
#67
b1000100 %
b0 ,
b0 0
#68
b1000101 %
b1000 ,
b1000 0
#69
b1000110 %
b10 ,
b10 0
#70
b1000111 %
b1000 ,
b1000 0
#71
b1001000 %
#72
b1001001 %
b0 ,
b0 0
#73
b1001010 %
#74
b1001011 %
#75
b1001100 %
b10 ,
b10 0
#76
b1001101 %
b0 ,
b0 0
#77
b1001110 %
b1010 ,
b1010 0
#78
b1001111 %
#79
b1010000 %
b0 ,
b0 0
#80
b1010001 %
b1000 ,
b1000 0
#81
b1010010 %
b0 ,
b0 0
#82
b1010011 %
b1000 ,
b1000 0
#83
b1010100 %
b11 ,
b11 0
#84
b1010101 %
b1000 ,
b1000 0
#85
b1010110 %
b10 ,
b10 0
#86
b1010111 %
b1000 ,
b1000 0
#87
b1011000 %
b10 ,
b10 0
#88
b1011001 %
#89
b1011010 %
b1001 ,
b1001 0
#90
b1011011 %
b10 ,
b10 0
#91
b1011100 %
b11 ,
b11 0
#92
b1011101 %
b1000 ,
b1000 0
#93
b1011110 %
b1010 ,
b1010 0
#94
b1011111 %
b1000 ,
b1000 0
#95
b1100000 %
b11 ,
b11 0
#96
b1100001 %
b1000 ,
b1000 0
#97
b1100010 %
b10 ,
b10 0
#98
b1100011 %
b0 ,
b0 0
#99
b1100100 %
b1001 ,
b1001 0
#100
b1100101 %
b1000 ,
b1000 0
#101
b1100110 %
b10 ,
b10 0
#102
b1100111 %
b11 ,
b11 0
#103
b1101000 %
b1000 ,
b1000 0
#104
b1101001 %
#105
b1101010 %
b0 ,
b0 0
#106
b1101011 %
#107
b1101100 %
b10 ,
b10 0
#108
b1101101 %
b0 ,
b0 0
#109
b1101110 %
b11 ,
b11 0
#110
b1101111 %
b1010 ,
b1010 0
#111
b1110000 %
b1000 ,
b1000 0
#112
b1110001 %
b1010 ,
b1010 0
#113
b1110010 %
b10 ,
b10 0
#114
b1110011 %
b1010 ,
b1010 0
#115
b1110100 %
b0 ,
b0 0
#116
b1110101 %
#117
b1110110 %
b1000 ,
b1000 0
#118
b1110111 %
b10 ,
b10 0
#119
b1111000 %
b0 ,
b0 0
#120
b1111001 %
#121
b1111010 %
#122
b1111011 %
b1000 ,
b1000 0
#123
b1111100 %
b1001 ,
b1001 0
#124
b1111101 %
b1000 ,
b1000 0
#125
b1111110 %
#126
b1111111 %
b0 ,
b0 0
#127
b0 %
#128
b1 %
b10 ,
b10 0
#129
b10 %
b1000 ,
b1000 0
#130
b11 %
b0 ,
b0 0
#131
b100 %
b1010 ,
b1010 0
#132
b101 %
b0 ,
b0 0
#133
b110 %
b1000 ,
b1000 0
#134
b111 %
b0 ,
b0 0
#135
b1000 %
b1000 ,
b1000 0
#136
b1001 %
b10 ,
b10 0
#137
b1010 %
b1010 ,
b1010 0
#138
b1011 %
b11 ,
b11 0
#139
b1100 %
b10 ,
b10 0
#140
b1101 %
b0 ,
b0 0
#141
b1110 %
b1010 ,
b1010 0
#142
b1111 %
b0 ,
b0 0
#143
b10000 %
b1000 ,
b1000 0
#144
b10001 %
#145
b10010 %
#146
b10011 %
b0 ,
b0 0
#147
b10100 %
b10 ,
b10 0
#148
b10101 %
b1001 ,
b1001 0
#149
b10110 %
b1000 ,
b1000 0
#150
b10111 %
#151
b11000 %
#152
b11001 %
#153
b11010 %
b1001 ,
b1001 0
#154
b11011 %
b11 ,
b11 0
#155
b11100 %
b0 ,
b0 0
#156
b11101 %
b10 ,
b10 0
#157
b11110 %
b1000 ,
b1000 0
#158
b11111 %
b11 ,
b11 0
#159
b100000 %
b1010 ,
b1010 0
#160
b100001 %
b10 ,
b10 0
#161
b100010 %
b1000 ,
b1000 0
#162
b100011 %
#163
b100100 %
b11 ,
b11 0
#164
b100101 %
b1000 ,
b1000 0
#165
b100110 %
b1001 ,
b1001 0
#166
b100111 %
b1000 ,
b1000 0
#167
b101000 %
b0 ,
b0 0
#168
b101001 %
b10 ,
b10 0
#169
b101010 %
b1000 ,
b1000 0
#170
b101011 %
b0 ,
b0 0
#171
b101100 %
b10 ,
b10 0
#172
b101101 %
b1000 ,
b1000 0
#173
b101110 %
#174
b101111 %
#175
b110000 %
#176
b110001 %
#177
b110010 %
b0 ,
b0 0
#178
b110011 %
#179
b110100 %
b1000 ,
b1000 0
#180
b110101 %
#181
b110110 %
#182
b110111 %
#183
b111000 %
b0 ,
b0 0
#184
b111001 %
b1001 ,
b1001 0
#185
b111010 %
b1010 ,
b1010 0
#186
b111011 %
b0 ,
b0 0
#187
b111100 %
b11 ,
b11 0
#188
b111101 %
b1000 ,
b1000 0
#189
b111110 %
b10 ,
b10 0
#190
b111111 %
b1010 ,
b1010 0
#191
b1000000 %
b0 ,
b0 0
#192
b1000001 %
b1000 ,
b1000 0
#193
b1000010 %
#194
b1000011 %
#195
b1000100 %
b0 ,
b0 0
#196
b1000101 %
b1000 ,
b1000 0
#197
b1000110 %
b10 ,
b10 0
#198
b1000111 %
b1000 ,
b1000 0
#199
b1001000 %
#200
b1001001 %
b0 ,
b0 0
#201
b1001010 %
#202
b1001011 %
#203
b1001100 %
b10 ,
b10 0
#204
b1001101 %
b0 ,
b0 0
#205
b1001110 %
b1010 ,
b1010 0
#206
b1001111 %
#207
b1010000 %
b0 ,
b0 0
#208
b1010001 %
b1000 ,
b1000 0
#209
b1010010 %
b0 ,
b0 0
#210
b1010011 %
b1000 ,
b1000 0
#211
b1010100 %
b11 ,
b11 0
#212
b1010101 %
b1000 ,
b1000 0
#213
b1010110 %
b10 ,
b10 0
#214
b1010111 %
b1000 ,
b1000 0
#215
b1011000 %
b10 ,
b10 0
#216
b1011001 %
#217
b1011010 %
b1001 ,
b1001 0
#218
b1011011 %
b10 ,
b10 0
#219
b1011100 %
b11 ,
b11 0
#220
b1011101 %
b1000 ,
b1000 0
#221
b1011110 %
b1010 ,
b1010 0
#222
b1011111 %
b1000 ,
b1000 0
#223
b1100000 %
b11 ,
b11 0
#224
b1100001 %
b1000 ,
b1000 0
#225
b1100010 %
b10 ,
b10 0
#226
b1100011 %
b0 ,
b0 0
#227
b1100100 %
b1001 ,
b1001 0
#228
b1100101 %
b1000 ,
b1000 0
#229
b1100110 %
b10 ,
b10 0
#230
b1100111 %
b11 ,
b11 0
#231
b1101000 %
b1000 ,
b1000 0
#232
b1101001 %
#233
b1101010 %
b0 ,
b0 0
#234
b1101011 %
#235
b1101100 %
b10 ,
b10 0
#236
b1101101 %
b0 ,
b0 0
#237
b1101110 %
b11 ,
b11 0
#238
b1101111 %
b1010 ,
b1010 0
#239
b1110000 %
b1000 ,
b1000 0
#240
b1110001 %
b1010 ,
b1010 0
#241
b1110010 %
b10 ,
b10 0
#242
b1110011 %
b1010 ,
b1010 0
#243
b1110100 %
b0 ,
b0 0
#244
b1110101 %
#245
b1110110 %
b1000 ,
b1000 0
#246
b1110111 %
b10 ,
b10 0
#247
b1111000 %
b0 ,
b0 0
#248
b1111001 %
#249
b1111010 %
#250
b1111011 %
b1000 ,
b1000 0
#251
b1111100 %
b1001 ,
b1001 0
#252
b1111101 %
b1000 ,
b1000 0
#253
b1111110 %
#254
b1111111 %
b0 ,
b0 0
#255
b0 %
#256
b1 %
b10 ,
b10 0
#257
b10 %
b1000 ,
b1000 0
#258
b11 %
b0 ,
b0 0
#259
b100 %
b1010 ,
b1010 0
#260
b101 %
b0 ,
b0 0
#261
b110 %
b1000 ,
b1000 0
#262
b111 %
b0 ,
b0 0
#263
b1000 %
b1000 ,
b1000 0
#264
b1001 %
b10 ,
b10 0
#265
b1010 %
b1010 ,
b1010 0
#266
b1011 %
b11 ,
b11 0
#267
b1100 %
b10 ,
b10 0
#268
b1101 %
b0 ,
b0 0
#269
b1110 %
b1010 ,
b1010 0
#270
b1111 %
b0 ,
b0 0
#271
b10000 %
b1000 ,
b1000 0
#272
b10001 %
#273
b10010 %
#274
b10011 %
b0 ,
b0 0
#275
b10100 %
b10 ,
b10 0
#276
b10101 %
b1001 ,
b1001 0
#277
b10110 %
b1000 ,
b1000 0
#278
b10111 %
#279
b11000 %
#280
b11001 %
#281
b11010 %
b1001 ,
b1001 0
#282
b11011 %
b11 ,
b11 0
#283
b11100 %
b0 ,
b0 0
#284
b11101 %
b10 ,
b10 0
#285
b11110 %
b1000 ,
b1000 0
#286
b11111 %
b11 ,
b11 0
#287
b100000 %
b1010 ,
b1010 0
#288
b100001 %
b10 ,
b10 0
#289
b100010 %
b1000 ,
b1000 0
#290
b100011 %
#291
b100100 %
b11 ,
b11 0
#292
b100101 %
b1000 ,
b1000 0
#293
b100110 %
b1001 ,
b1001 0
#294
b100111 %
b1000 ,
b1000 0
#295
b101000 %
b0 ,
b0 0
#296
b101001 %
b10 ,
b10 0
#297
b101010 %
b1000 ,
b1000 0
#298
b101011 %
b0 ,
b0 0
#299
b101100 %
b10 ,
b10 0
#300
b101101 %
b1000 ,
b1000 0
#301
b101110 %
#302
b101111 %
#303
b110000 %
#304
b110001 %
#305
b110010 %
b0 ,
b0 0
#306
b110011 %
#307
b110100 %
b1000 ,
b1000 0
#308
b110101 %
#309
b110110 %
#310
b110111 %
#311
b111000 %
b0 ,
b0 0
#312
b111001 %
b1001 ,
b1001 0
#313
b111010 %
b1010 ,
b1010 0
#314
b111011 %
b0 ,
b0 0
#315
b111100 %
b11 ,
b11 0
#316
b111101 %
b1000 ,
b1000 0
#317
b111110 %
b10 ,
b10 0
#318
b111111 %
b1010 ,
b1010 0
#319
b1000000 %
b0 ,
b0 0
#320
b1000001 %
b1000 ,
b1000 0
#321
b1000010 %
#322
b1000011 %
#323
b1000100 %
b0 ,
b0 0
#324
b1000101 %
b1000 ,
b1000 0
#325
b1000110 %
b10 ,
b10 0
#326
b1000111 %
b1000 ,
b1000 0
#327
b1001000 %
#328
b1001001 %
b0 ,
b0 0
#329
b1001010 %
#330
b1001011 %
#331
b1001100 %
b10 ,
b10 0
#332
b1001101 %
b0 ,
b0 0
#333
b1001110 %
b1010 ,
b1010 0
#334
b1001111 %
#335
b1010000 %
b0 ,
b0 0
#336
b1010001 %
b1000 ,
b1000 0
#337
b1010010 %
b0 ,
b0 0
#338
b1010011 %
b1000 ,
b1000 0
#339
b1010100 %
b11 ,
b11 0
#340
b1010101 %
b1000 ,
b1000 0
#341
b1010110 %
b10 ,
b10 0
#342
b1010111 %
b1000 ,
b1000 0
#343
b1011000 %
b10 ,
b10 0
#344
b1011001 %
#345
b1011010 %
b1001 ,
b1001 0
#346
b1011011 %
b10 ,
b10 0
#347
b1011100 %
b11 ,
b11 0
#348
b1011101 %
b1000 ,
b1000 0
#349
b1011110 %
b1010 ,
b1010 0
#350
b1011111 %
b1000 ,
b1000 0
#351
b1100000 %
b11 ,
b11 0
#352
b1100001 %
b1000 ,
b1000 0
#353
b1100010 %
b10 ,
b10 0
#354
b1100011 %
b0 ,
b0 0
#355
b1100100 %
b1001 ,
b1001 0
#356
b1100101 %
b1000 ,
b1000 0
#357
b1100110 %
b10 ,
b10 0
#358
b1100111 %
b11 ,
b11 0
#359
b1101000 %
b1000 ,
b1000 0
#360
b1101001 %
#361
b1101010 %
b0 ,
b0 0
#362
b1101011 %
#363
b1101100 %
b10 ,
b10 0
#364
b1101101 %
b0 ,
b0 0
#365
b1101110 %
b11 ,
b11 0
#366
b1101111 %
b1010 ,
b1010 0
#367
b1110000 %
b1000 ,
b1000 0
#368
b1110001 %
b1010 ,
b1010 0
#369
b1110010 %
b10 ,
b10 0
#370
b1110011 %
b1010 ,
b1010 0
#371
b1110100 %
b0 ,
b0 0
#372
b1110101 %
#373
b1110110 %
b1000 ,
b1000 0
#374
b1110111 %
b10 ,
b10 0
#375
b1111000 %
b0 ,
b0 0
#376
b1111001 %
#377
b1111010 %
#378
b1111011 %
b1000 ,
b1000 0
#379
b1111100 %
b1001 ,
b1001 0
#380
b1111101 %
b1000 ,
b1000 0
#381
b1111110 %
#382
b1111111 %
b0 ,
b0 0
#383
b0 %
#384
b1 %
b10 ,
b10 0
#385
b10 %
b1000 ,
b1000 0
#386
b11 %
b0 ,
b0 0
#387
b100 %
b1010 ,
b1010 0
#388
b101 %
b0 ,
b0 0
#389
b110 %
b1000 ,
b1000 0
#390
b111 %
b0 ,
b0 0
#391
b1000 %
b1000 ,
b1000 0
#392
b1001 %
b10 ,
b10 0
#393
b1010 %
b1010 ,
b1010 0
#394
b1011 %
b11 ,
b11 0
#395
b1100 %
b10 ,
b10 0
#396
b1101 %
b0 ,
b0 0
#397
b1110 %
b1010 ,
b1010 0
#398
b1111 %
b0 ,
b0 0
#399
b10000 %
b1000 ,
b1000 0
#400
b10001 %
#401
b10010 %
#402
b10011 %
b0 ,
b0 0
#403
b10100 %
b10 ,
b10 0
#404
b10101 %
b1001 ,
b1001 0
#405
b10110 %
b1000 ,
b1000 0
#406
b10111 %
#407
b11000 %
#408
b11001 %
#409
b11010 %
b1001 ,
b1001 0
#410
b11011 %
b11 ,
b11 0
#411
b11100 %
b0 ,
b0 0
#412
b11101 %
b10 ,
b10 0
#413
b11110 %
b1000 ,
b1000 0
#414
b11111 %
b11 ,
b11 0
#415
b100000 %
b1010 ,
b1010 0
#416
b100001 %
b10 ,
b10 0
#417
b100010 %
b1000 ,
b1000 0
#418
b100011 %
#419
b100100 %
b11 ,
b11 0
#420
b100101 %
b1000 ,
b1000 0
#421
b100110 %
b1001 ,
b1001 0
#422
b100111 %
b1000 ,
b1000 0
#423
b101000 %
b0 ,
b0 0
#424
b101001 %
b10 ,
b10 0
#425
b101010 %
b1000 ,
b1000 0
#426
b101011 %
b0 ,
b0 0
#427
b101100 %
b10 ,
b10 0
#428
b101101 %
b1000 ,
b1000 0
#429
b101110 %
#430
b101111 %
#431
b110000 %
#432
b110001 %
#433
b110010 %
b0 ,
b0 0
#434
b110011 %
#435
b110100 %
b1000 ,
b1000 0
#436
b110101 %
#437
b110110 %
#438
b110111 %
#439
b111000 %
b0 ,
b0 0
#440
b111001 %
b1001 ,
b1001 0
#441
b111010 %
b1010 ,
b1010 0
#442
b111011 %
b0 ,
b0 0
#443
b111100 %
b11 ,
b11 0
#444
b111101 %
b1000 ,
b1000 0
#445
b111110 %
b10 ,
b10 0
#446
b111111 %
b1010 ,
b1010 0
#447
b1000000 %
b0 ,
b0 0
#448
b1000001 %
b1000 ,
b1000 0
#449
b1000010 %
#450
b1000011 %
#451
b1000100 %
b0 ,
b0 0
#452
b1000101 %
b1000 ,
b1000 0
#453
b1000110 %
b10 ,
b10 0
#454
b1000111 %
b1000 ,
b1000 0
#455
b1001000 %
#456
b1001001 %
b0 ,
b0 0
#457
b1001010 %
#458
b1001011 %
#459
b1001100 %
b10 ,
b10 0
#460
b1001101 %
b0 ,
b0 0
#461
b1001110 %
b1010 ,
b1010 0
#462
b1001111 %
#463
b1010000 %
b0 ,
b0 0
#464
b1010001 %
b1000 ,
b1000 0
#465
b1010010 %
b0 ,
b0 0
#466
b1010011 %
b1000 ,
b1000 0
#467
b1010100 %
b11 ,
b11 0
#468
b1010101 %
b1000 ,
b1000 0
#469
b1010110 %
b10 ,
b10 0
#470
b1010111 %
b1000 ,
b1000 0
#471
b1011000 %
b10 ,
b10 0
#472
b1011001 %
#473
b1011010 %
b1001 ,
b1001 0
#474
b1011011 %
b10 ,
b10 0
#475
b1011100 %
b11 ,
b11 0
#476
b1011101 %
b1000 ,
b1000 0
#477
b1011110 %
b1010 ,
b1010 0
#478
b1011111 %
b1000 ,
b1000 0
#479
b1100000 %
b11 ,
b11 0
#480
b1100001 %
b1000 ,
b1000 0
#481
b1100010 %
b10 ,
b10 0
#482
b1100011 %
b0 ,
b0 0
#483
b1100100 %
b1001 ,
b1001 0
#484
b1100101 %
b1000 ,
b1000 0
#485
b1100110 %
b10 ,
b10 0
#486
b1100111 %
b11 ,
b11 0
#487
b1101000 %
b1000 ,
b1000 0
#488
b1101001 %
#489
b1101010 %
b0 ,
b0 0
#490
b1101011 %
#491
b1101100 %
b10 ,
b10 0
#492
b1101101 %
b0 ,
b0 0
#493
b1101110 %
b11 ,
b11 0
#494
b1101111 %
b1010 ,
b1010 0
#495
b1110000 %
b1000 ,
b1000 0
#496
b1110001 %
b1010 ,
b1010 0
#497
b1110010 %
b10 ,
b10 0
#498
b1110011 %
b1010 ,
b1010 0
#499
b1110100 %
b0 ,
b0 0
#500
b1110101 %
#501
b1110110 %
b1000 ,
b1000 0
#502
b1110111 %
b10 ,
b10 0
#503
b1111000 %
b0 ,
b0 0
#504
b1111001 %
#505
b1111010 %
#506
b1111011 %
b1000 ,
b1000 0
#507
b1111100 %
b1001 ,
b1001 0
#508
b1111101 %
b1000 ,
b1000 0
#509
b1111110 %
#510
b1111111 %
b0 ,
b0 0
#511
b0 %
#512
b1 %
b10 ,
b10 0
14
#513
b10 %
b1000 ,
b1000 0
#514
b11 %
b0 ,
b0 0
#515
b100 %
b1010 ,
b1010 0
#516
b101 %
b0 ,
b0 0
#517
b110 %
b1000 ,
b1000 0
#518
b111 %
b0 ,
b0 0
#519
b1000 %
b1000 ,
b1000 0
#520
b1001 %
b10 ,
b10 0
#521
b1010 %
b1010 ,
b1010 0
#522
b1011 %
b11 ,
b11 0
#523
b1100 %
b10 ,
b10 0
#524
b1101 %
b0 ,
b0 0
#525
b1110 %
b1010 ,
b1010 0
#526
b1111 %
b0 ,
b0 0
#527
b10000 %
b1000 ,
b1000 0
#528
b10001 %
#529
b10010 %
#530
b10011 %
b0 ,
b0 0
#531
b10100 %
b10 ,
b10 0
#532
b10101 %
b1001 ,
b1001 0
#533
b10110 %
b1000 ,
b1000 0
#534
b10111 %
#535
b11000 %
#536
b11001 %
#537
b11010 %
b1001 ,
b1001 0
#538
b11011 %
b11 ,
b11 0
#539
b11100 %
b0 ,
b0 0
#540
b11101 %
b10 ,
b10 0
#541
b11110 %
b1000 ,
b1000 0
#542
b11111 %
b11 ,
b11 0
#543
b100000 %
b1010 ,
b1010 0
#544
b100001 %
b10 ,
b10 0
#545
b100010 %
b1000 ,
b1000 0
#546
b100011 %
#547
b100100 %
b11 ,
b11 0
#548
b100101 %
b1000 ,
b1000 0
#549
b100110 %
b1001 ,
b1001 0
#550
b100111 %
b1000 ,
b1000 0
#551
b101000 %
b0 ,
b0 0
#552
b101001 %
b10 ,
b10 0
#553
b101010 %
b1000 ,
b1000 0
#554
b101011 %
b0 ,
b0 0
#555
b101100 %
b10 ,
b10 0
#556
b101101 %
b1000 ,
b1000 0
#557
b101110 %
#558
b101111 %
#559
b110000 %
#560
b110001 %
#561
b110010 %
b0 ,
b0 0
#562
b110011 %
#563
b110100 %
b1000 ,
b1000 0
#564
b110101 %
#565
b110110 %
#566
b110111 %
#567
b111000 %
b0 ,
b0 0
#568
b111001 %
b1001 ,
b1001 0
#569
b111010 %
b1010 ,
b1010 0
#570
b111011 %
b0 ,
b0 0
#571
b111100 %
b11 ,
b11 0
#572
b111101 %
b1000 ,
b1000 0
#573
b111110 %
b10 ,
b10 0
#574
b111111 %
b1010 ,
b1010 0
#575
b1000000 %
b0 ,
b0 0
#576
b1000001 %
b1000 ,
b1000 0
#577
b1000010 %
#578
b1000011 %
#579
b1000100 %
b0 ,
b0 0
#580
b1000101 %
b1000 ,
b1000 0
#581
b1000110 %
b10 ,
b10 0
#582
b1000111 %
b1000 ,
b1000 0
#583
b1001000 %
#584
b1001001 %
b0 ,
b0 0
#585
b1001010 %
#586
b1001011 %
#587
b1001100 %
b10 ,
b10 0
#588
b1001101 %
b0 ,
b0 0
#589
b1001110 %
b1010 ,
b1010 0
#590
b1001111 %
#591
b1010000 %
b0 ,
b0 0
#592
b1010001 %
b1000 ,
b1000 0
#593
b1010010 %
b0 ,
b0 0
#594
b1010011 %
b1000 ,
b1000 0
#595
b1010100 %
b11 ,
b11 0
#596
b1010101 %
b1000 ,
b1000 0
#597
b1010110 %
b10 ,
b10 0
#598
b1010111 %
b1000 ,
b1000 0
#599
b1011000 %
b10 ,
b10 0
#600
b1011001 %
#601
b1011010 %
b1001 ,
b1001 0
#602
b1011011 %
b10 ,
b10 0
#603
b1011100 %
b11 ,
b11 0
#604
b1011101 %
b1000 ,
b1000 0
#605
b1011110 %
b1010 ,
b1010 0
#606
b1011111 %
b1000 ,
b1000 0
#607
b1100000 %
b11 ,
b11 0
#608
b1100001 %
b1000 ,
b1000 0
#609
b1100010 %
b10 ,
b10 0
#610
b1100011 %
b0 ,
b0 0
#611
b1100100 %
b1001 ,
b1001 0
#612
b1100101 %
b1000 ,
b1000 0
#613
b1100110 %
b10 ,
b10 0
#614
b1100111 %
b11 ,
b11 0
#615
b1101000 %
b1000 ,
b1000 0
#616
b1101001 %
#617
b1101010 %
b0 ,
b0 0
#618
b1101011 %
#619
b1101100 %
b10 ,
b10 0
#620
b1101101 %
b0 ,
b0 0
#621
b1101110 %
b11 ,
b11 0
#622
b1101111 %
b1010 ,
b1010 0
#623
b1110000 %
b1000 ,
b1000 0
#624
b1110001 %
b1010 ,
b1010 0
#625
b1110010 %
b10 ,
b10 0
#626
b1110011 %
b1010 ,
b1010 0
#627
b1110100 %
b0 ,
b0 0
#628
b1110101 %
#629
b1110110 %
b1000 ,
b1000 0
#630
b1110111 %
b10 ,
b10 0
#631
b1111000 %
b0 ,
b0 0
#632
b1111001 %
#633
b1111010 %
#634
b1111011 %
b1000 ,
b1000 0
#635
b1111100 %
b1001 ,
b1001 0
#636
b1111101 %
b1000 ,
b1000 0
#637
b1111110 %
#638
b1111111 %
b0 ,
b0 0
#639
b0 %
#640
b1 %
b10 ,
b10 0
#641
b10 %
b1000 ,
b1000 0
#642
b11 %
b0 ,
b0 0
#643
b100 %
b1010 ,
b1010 0
#644
b101 %
b0 ,
b0 0
#645
b110 %
b1000 ,
b1000 0
#646
b111 %
b0 ,
b0 0
#647
b1000 %
b1000 ,
b1000 0
#648
b1001 %
b10 ,
b10 0
#649
b1010 %
b1010 ,
b1010 0
#650
b1011 %
b11 ,
b11 0
#651
b1100 %
b10 ,
b10 0
#652
b1101 %
b0 ,
b0 0
#653
b1110 %
b1010 ,
b1010 0
#654
b1111 %
b0 ,
b0 0
#655
b10000 %
b1000 ,
b1000 0
#656
b10001 %
#657
b10010 %
#658
b10011 %
b0 ,
b0 0
#659
b10100 %
b10 ,
b10 0
#660
b10101 %
b1001 ,
b1001 0
#661
b10110 %
b1000 ,
b1000 0
#662
b10111 %
#663
b11000 %
#664
b11001 %
#665
b11010 %
b1001 ,
b1001 0
#666
b11011 %
b11 ,
b11 0
#667
b11100 %
b0 ,
b0 0
#668
b11101 %
b10 ,
b10 0
#669
b11110 %
b1000 ,
b1000 0
#670
b11111 %
b11 ,
b11 0
#671
b100000 %
b1010 ,
b1010 0
#672
b100001 %
b10 ,
b10 0
#673
b100010 %
b1000 ,
b1000 0
#674
b100011 %
#675
b100100 %
b11 ,
b11 0
#676
b100101 %
b1000 ,
b1000 0
#677
b100110 %
b1001 ,
b1001 0
#678
b100111 %
b1000 ,
b1000 0
#679
b101000 %
b0 ,
b0 0
#680
b101001 %
b10 ,
b10 0
#681
b101010 %
b1000 ,
b1000 0
#682
b101011 %
b0 ,
b0 0
#683
b101100 %
b10 ,
b10 0
#684
b101101 %
b1000 ,
b1000 0
#685
b101110 %
#686
b101111 %
#687
b110000 %
#688
b110001 %
#689
b110010 %
b0 ,
b0 0
#690
b110011 %
#691
b110100 %
b1000 ,
b1000 0
#692
b110101 %
#693
b110110 %
#694
b110111 %
#695
b111000 %
b0 ,
b0 0
#696
b111001 %
b1001 ,
b1001 0
#697
b111010 %
b1010 ,
b1010 0
#698
b111011 %
b0 ,
b0 0
#699
b111100 %
b11 ,
b11 0
#700
b111101 %
b1000 ,
b1000 0
#701
b111110 %
b10 ,
b10 0
#702
b111111 %
b1010 ,
b1010 0
#703
b1000000 %
b0 ,
b0 0
#704
b1000001 %
b1000 ,
b1000 0
#705
b1000010 %
#706
b1000011 %
#707
b1000100 %
b0 ,
b0 0
#708
b1000101 %
b1000 ,
b1000 0
#709
b1000110 %
b10 ,
b10 0
#710
b1000111 %
b1000 ,
b1000 0
#711
b1001000 %
#712
b1001001 %
b0 ,
b0 0
#713
b1001010 %
#714
b1001011 %
#715
b1001100 %
b10 ,
b10 0
#716
b1001101 %
b0 ,
b0 0
#717
b1001110 %
b1010 ,
b1010 0
#718
b1001111 %
#719
b1010000 %
b0 ,
b0 0
#720
b1010001 %
b1000 ,
b1000 0
#721
b1010010 %
b0 ,
b0 0
#722
b1010011 %
b1000 ,
b1000 0
#723
b1010100 %
b11 ,
b11 0
#724
b1010101 %
b1000 ,
b1000 0
#725
b1010110 %
b10 ,
b10 0
#726
b1010111 %
b1000 ,
b1000 0
#727
b1011000 %
b10 ,
b10 0
#728
b1011001 %
#729
b1011010 %
b1001 ,
b1001 0
#730
b1011011 %
b10 ,
b10 0
#731
b1011100 %
b11 ,
b11 0
#732
b1011101 %
b1000 ,
b1000 0
#733
b1011110 %
b1010 ,
b1010 0
#734
b1011111 %
b1000 ,
b1000 0
#735
b1100000 %
b11 ,
b11 0
#736
b1100001 %
b1000 ,
b1000 0
#737
b1100010 %
b10 ,
b10 0
#738
b1100011 %
b0 ,
b0 0
#739
b1100100 %
b1001 ,
b1001 0
#740
b1100101 %
b1000 ,
b1000 0
#741
b1100110 %
b10 ,
b10 0
#742
b1100111 %
b11 ,
b11 0
#743
b1101000 %
b1000 ,
b1000 0
#744
b1101001 %
#745
b1101010 %
b0 ,
b0 0
#746
b1101011 %
#747
b1101100 %
b10 ,
b10 0
#748
b1101101 %
b0 ,
b0 0
#749
b1101110 %
b11 ,
b11 0
#750
b1101111 %
b1010 ,
b1010 0
#751
b1110000 %
b1000 ,
b1000 0
#752
b1110001 %
b1010 ,
b1010 0
#753
b1110010 %
b10 ,
b10 0
#754
b1110011 %
b1010 ,
b1010 0
#755
b1110100 %
b0 ,
b0 0
#756
b1110101 %
#757
b1110110 %
b1000 ,
b1000 0
#758
b1110111 %
b10 ,
b10 0
#759
b1111000 %
b0 ,
b0 0
#760
b1111001 %
#761
b1111010 %
#762
b1111011 %
b1000 ,
b1000 0
#763
b1111100 %
b1001 ,
b1001 0
#764
b1111101 %
b1000 ,
b1000 0
#765
b1111110 %
#766
b1111111 %
b0 ,
b0 0
#767
b0 %
#768
b1 %
b10 ,
b10 0
#769
b10 %
b1000 ,
b1000 0
#770
b11 %
b0 ,
b0 0
#771
b100 %
b1010 ,
b1010 0
#772
b101 %
b0 ,
b0 0
#773
b110 %
b1000 ,
b1000 0
#774
b111 %
b0 ,
b0 0
#775
b1000 %
b1000 ,
b1000 0
#776
b1001 %
b10 ,
b10 0
#777
b1010 %
b1010 ,
b1010 0
#778
b1011 %
b11 ,
b11 0
#779
b1100 %
b10 ,
b10 0
